{
  "project_info": {
    "project_number": "212573039400",
    "firebase_url": "https://roma-98263.firebaseio.com",
    "project_id": "roma-98263",
    "storage_bucket": "roma-98263.appspot.com"
  },
  "client": [
    {
      "client_info": {
        "mobilesdk_app_id": "1:212573039400:android:815f55794af9f5df",
        "android_client_info": {
          "package_name": "edu.ltu.roma"
        }
      },
      "oauth_client": [
        {
          "client_id": "212573039400-v5u31eorjstbvpjbkbhvri0kf8532efb.apps.googleusercontent.com",
          "client_type": 3
        }
      ],
      "api_key": [
        {
          "current_key": "AIzaSyDxKeFdRU4d3pKOdfmUXn1NbRpxx0eBITI"
        }
      ],
      "services": {
        "analytics_service": {
          "status": 1
        },
        "appinvite_service": {
          "status": 1,
          "other_platform_oauth_client": []
        },
        "ads_service": {
          "status": 2
        }
      }
    }
  ],
  "configuration_version": "1"
}